{
  "$schema": "http://json-schema.org/draft-04/schema#",
  "type": "object",
  "properties": {
    "response": {
      "type": "array",
      "items": {
        "type": "object",
        "additionalProperties": false,
        "properties": {
          "id": {
            "type": "string"
          },
          "identifier": {
            "type": "string"
          },
          "state": {
            "type": "string"
          },
          "title": {
            "type": "string"
          },
          "description": {
            "type": "null"
          },
          "machine_id": {
            "type": "integer"
          },
          "docker_command_id": {
            "type": ["integer", "null"]
          },
          "security_container_id": {
            "type": ["integer", "null"]
          },
          "created_at": {
            "type": "string"
          },
          "updated_at": {
            "type": "string"
          },
          "service_id": {
            "type": ["integer", "null"]
          },
          "service_name": {
            "type": ["string", "null"]
          },
          "type": {
            "type": "string"
          },
          "associated_requirements": {
            "type": "array"
          },
          "results": {
            "type": "array",
            "items": {
              "type": "object",
              "properties": {
                "id": {
                  "type": "integer"
                },
                "nid": {
                  "type": "string"
                },
                "sir": {
                  "type": "string"
                },
                "output": {
                  "type": "string"
                },
                "status": {
                  "type": "string"
                },
                "title": {
                  "type": "string"
                },
                "description": {
                  "type": "string"
                },
                "ignored": {
                  "type": "boolean"
                },
                "signature": {
                  "type": "string"
                }
              }
            }
          }
        },
        "required": [
          "id",
          "identifier",
          "state",
          "title",
          "description",
          "machine_id",
          "docker_command_id",
          "security_container_id",
          "created_at",
          "updated_at",
          "associated_requirements",
          "results",
          "service_id",
          "service_name",
          "type"
        ]
      }
    }
  },
  "required": [
    "response"
  ]
}
