{
  "$schema": "http://json-schema.org/draft-04/schema#",
  "type": "object",
  "properties": {
    "response": {
      "type": "object",
      "additionalProperties": false,
      "properties": {
        "id": {
          "type": "integer"
        },
        "provider": {
          "type": "string"
        },
        "user": {
          "type": "string"
        },
        "key": {
          "type": "string"
        },
        "organization_id": {
          "type": "integer"
        },
        "created_at": {
          "type": "string"
        },
        "updated_at": {
          "type": "string"
        },
        "auth_url": {
          "type": ["string", "null"]
        },
        "region": {
          "type": ["string", "null"]
        },
        "project": {
          "type": ["string", "null"]
        },
        "iaas_discoveries" : {
          "type": "array"
        }
      },
      "required": [
        "id",
        "organization_id",
        "provider",
        "user",
        "key",
        "created_at",
        "updated_at",
        "auth_url",
        "region",
        "project",
        "iaas_discoveries"
      ]
    }
  },
  "required": [
    "response"
  ]
}
