{
  "$schema": "http://json-schema.org/draft-04/schema#",
  "type": "object",
  "properties": {
    "response": {
      "type": ["object", "null"],
      "additionalProperties": false,
      "properties": {
        "id": {
          "type": "integer"
        },
        "username": {
          "type": "string"
        },
        "password": {
          "type": "string"
        },
        "service_id": {
          "type": "integer"
        },
        "created_at": {
          "type": "string"
        },
        "updated_at": {
          "type": "string"
        }
      },
      "required": [
        "id",
        "username",
        "password",
        "service_id",
        "created_at",
        "updated_at"
      ]
    }
  },
  "required": [
    "response"
  ]
}
