{
  "$schema": "http://json-schema.org/draft-04/schema#",
  "type": "object",
  "properties": {
    "response": {
      "type": "object",
      "additionalProperties": false,
      "properties": {
        "id": {
          "type": "integer"
        },
        "email": {
          "type": "string"
        },
        "uid": {
          "type": "string"
        },
        "firstname": {
          "type": "string"
        },
        "lastname": {
          "type": "string"
        },
        "created_at": {
          "type": "string"
        },
        "updated_at": {
          "type": "string"
        },
        "api_token": {
          "type": "string"
        }
      },
      "required": [
        "id",
        "email",
        "uid",
        "firstname",
        "lastname",
        "created_at",
        "updated_at",
        "api_token"
      ]
    }
  },
  "required": [
    "response"
  ]
}
